#Daxugo Rebellions Disaster

daxugo_rebellions = {
	potential = {
		tag = Y98
		NOT = { has_country_flag = daxugo_reformed }
		NOT = { has_ruler_flag = daxugo_former }
		NOT = {
			AND = {
				has_country_flag = daxugo_north_yan_placated
				has_country_flag = daxugo_hill_yan_placated
				has_country_flag = daxugo_river_yan_placated
				has_country_flag = daxugo_coastal_yan_placated
				has_country_flag = daxugo_forest_yan_placated
			}
		}
	}


	can_start = {
		custom_trigger_tooltip = {
			tooltip = not_daxugo_former
			NOT = { has_ruler_flag = daxugo_former }
		}
	}


	progress = {
		modifier = {
			factor = 1
			NOT = { legitimacy = 90 }
		}
		modifier = {
			factor = 1
			NOT = { stability = 1 }
		}
		modifier = {
			factor = 1
			overextension_percentage = 0.20
		}
		modifier = {
			factor = 2
			revolt_percentage = 0.10
		}
		modifier = {
			factor = 1
			custom_trigger_tooltip = {
				tooltip = not_daxugo_former
				NOT = { has_ruler_flag = daxugo_former }
			}
		}
	}


	can_end = {
		has_country_flag = daxugo_north_yan_placated
		has_country_flag = daxugo_hill_yan_placated
		has_country_flag = daxugo_river_yan_placated
		has_country_flag = daxugo_coastal_yan_placated
		has_country_flag = daxugo_forest_yan_placated
		legitimacy = 70
		stability = 0
		is_at_war = no
	}
	
	can_stop = {
		has_country_flag = daxugo_north_yan_placated
		has_country_flag = daxugo_hill_yan_placated
		has_country_flag = daxugo_river_yan_placated
		has_country_flag = daxugo_coastal_yan_placated
		has_country_flag = daxugo_forest_yan_placated
	}


	modifier = {
		stability_cost_modifier = 0.25
		global_unrest = 3
		war_exhaustion = 0.15
		reduced_liberty_desire = -20
	}


	on_start = birb.22
	on_end = birb.23


	on_monthly = {
		events = {

		}
		random_events = {
			30 = 0
			5 = birb.31 #Civil war hurts agriculture
			5 = birb.32 #Army deserters
			20 = birb.24 #rebel spawn
			5 = birb.25 #harimari loyalists
			5 = birb.26 #runsukhi loyalists
			5 = birb.28 #general comes out of retirement
			5 = birb.29 #odheongu rebellion
			5 = birb.33 #noble rebel leader captured
			5 = birb.36 #admin advisor betrayal
			5 = birb.37 #diplo advisor betrayal
			5 = birb.38 #mil advisor betrayal
		}
	}
}
