###RINGLET ISLES###
4773 = "Jodeimeiba"
6141 = "Syunwohoi"
6153 = "Timsaadou"
6140 = "Gwatci"
6151 = "Meibasik"
6139 = "Bingbinwú"
6137 = "Mouheigok"
6136 = "Jyulung"
6138 = "Fokisek"
6144 = "Namsikwaan"
6147 = "Boufungbou"
6152 = "Doumai"
6142 = "Wuwanziu"
6145 = "Daigin"
6146 = "Beng"
6148 = "Hyutjik"
6149 = "Zaamgei"