
namespace = bulgu_orazan
# Songs of Bramash
country_event = {
	id = bulgu_orazan.1
	title = bulgu_orazan.1.t
	desc = bulgu_orazan.1.d
	picture = STREET_SPEECH_eventPicture
	
	mean_time_to_happen = {
		years = 1

		modifier = {
			factor = 0.1
			tag = H39
		}
	}
	
	trigger = {
		religion = bulgu_orazan
		NOT = { has_country_flag = songs_of_bramash_haver }
		OR = {
			any_known_country = {
				OR = {
					any_owned_province = {
						is_core = H39
					}
					has_country_flag = songs_of_bramash_haver
				}
			}
			tag = H39
		}
	}
	
	option = {
		name = bulgu_orazan.1.a
		ai_chance = {
			factor = 1
		}
		set_country_flag = songs_of_bramash_haver
		custom_tooltip = songs_of_bramash_tooltip
	}
}

# Songs of Korgus
country_event = {
	id = bulgu_orazan.2
	title = bulgu_orazan.2.t
	desc = bulgu_orazan.2.d
	picture = STREET_SPEECH_eventPicture
	
	mean_time_to_happen = {
		years = 1

		modifier = {
			factor = 0.1
			capital_scope = { superregion = escann_superregion }
		}
	}
	
	trigger = {
		religion = bulgu_orazan
		NOT = { has_country_flag = songs_of_korgus_haver }
		OR = {
			any_known_country = {
				OR = {
					any_owned_province = {
						superregion = escann_superregion
						culture_group = orcish
					}
					has_country_flag = songs_of_korgus_haver
				}
			}
			any_owned_province = {
				superregion = escann_superregion
				culture_group = orcish
			}
		}
	}
	
	option = {
		name = bulgu_orazan.2.a
		ai_chance = {
			factor = 1
		}
		set_country_flag = songs_of_korgus_haver
		custom_tooltip = songs_of_korgus_tooltip
	}
}

# Songs of Brasur
country_event = {
	id = bulgu_orazan.3
	title = bulgu_orazan.3.t
	desc = bulgu_orazan.3.d
	picture = STREET_SPEECH_eventPicture
	
	mean_time_to_happen = {
		years = 1

		modifier = {
			factor = 0.1
			OR = {
				tag = Z50
				tag = Z18
			}
		}
	}
	
	trigger = {
		religion = bulgu_orazan
		NOT = { has_country_flag = songs_of_brasur_haver }
		OR = {
			any_known_country = {
				OR = {
					any_owned_province = {
						OR = {
							culture = gray_orc
							culture = grombar_orc
						}
					}
					has_country_flag = songs_of_brasur_haver
				}
			}
			tag = Z50
			tag = Z18
			tag = Z19
		}
	}
	
	option = {
		name = bulgu_orazan.3.a
		ai_chance = {
			factor = 1
		}
		set_country_flag = songs_of_brasur_haver
		custom_tooltip = songs_of_brasur_tooltip
	}
}

# Songs of brown struggle
country_event = {
	id = bulgu_orazan.4
	title = bulgu_orazan.4.t
	desc = bulgu_orazan.4.d
	picture = STREET_SPEECH_eventPicture
	
	mean_time_to_happen = {
		years = 1

		modifier = {
			factor = 0.1
			primary_culture = brown_orc
		}
	}
	
	trigger = {
		religion = bulgu_orazan
		NOT = { has_country_flag = songs_of_brown_struggle_haver }
		OR = {
			any_known_country = {
				OR = {
					any_owned_province = {
						culture = brown_orc
					}
					has_country_flag = songs_of_brown_struggle_haver
				}
			}
			primary_culture = brown_orc
		}
	}
	
	option = {
		name = bulgu_orazan.4.a
		ai_chance = {
			factor = 1
		}
		set_country_flag = songs_of_brown_struggle_haver
		custom_tooltip = songs_of_brown_struggle_tooltip
	}
}

# Songs of Bluetusk
country_event = {
	id = bulgu_orazan.5
	title = bulgu_orazan.5.t
	desc = bulgu_orazan.5.d
	picture = STREET_SPEECH_eventPicture
	
	mean_time_to_happen = {
		years = 1

		modifier = {
			factor = 0.1
			capital_scope = { superregion = escann_superregion }
		}
	}
	
	trigger = {
		religion = bulgu_orazan
		NOT = { has_country_flag = songs_of_bluetusk_haver }
		OR = {
			any_known_country = {
				OR = {
					any_owned_province = {
						superregion = escann_superregion
						culture_group = orcish
					}
					has_country_flag = songs_of_bluetusk_haver
				}
			}
			any_owned_province = {
				superregion = escann_superregion
			}
		}
	}
	
	option = {
		name = bulgu_orazan.5.a
		ai_chance = {
			factor = 1
		}
		set_country_flag = songs_of_bluetusk_haver
		custom_tooltip = songs_of_bluetusk_tooltip
	}
}

# Songs of Ashentree
country_event = {
	id = bulgu_orazan.6
	title = bulgu_orazan.6.t
	desc = bulgu_orazan.6.d
	picture = STREET_SPEECH_eventPicture
	
	mean_time_to_happen = {
		years = 1

		modifier = {
			factor = 0.1
			capital_scope = { superregion = deepwoods_superregion }
		}
	}
	
	trigger = {
		religion = bulgu_orazan
		NOT = { has_country_flag = songs_of_ashentree_haver }
		OR = {
			any_known_country = {
				OR = {
					any_owned_province = {
						culture = emerald_orc
					}
					has_country_flag = songs_of_ashentree_haver
				}
			}
			primary_culture = emerald_orc
		}
	}
	
	option = {
		name = bulgu_orazan.6.a
		ai_chance = {
			factor = 1
		}
		set_country_flag = songs_of_ashentree_haver
		custom_tooltip = songs_of_ashentree_tooltip
	}
}

# Songs of Maxug
country_event = {
	id = bulgu_orazan.7
	title = bulgu_orazan.7.t
	desc = bulgu_orazan.7.d
	picture = STREET_SPEECH_eventPicture
	
	mean_time_to_happen = {
		years = 1

		modifier = {
			factor = 0.1
			tag = H91
		}
		
		modifier = {
			factor = 0.1
			any_owned_province = {
				is_core H91
			}
		}
	}
	
	trigger = {
		religion = bulgu_orazan
		NOT = { has_country_flag = songs_of_maxug_haver }
		OR = {
			any_known_country = {
				OR = {
					any_owned_province = {
						is_core = H91
					}
					has_country_flag = songs_of_maxug_haver
				}
			}
			tag = H91
		}
	}
	
	option = {
		name = bulgu_orazan.7.a
		ai_chance = {
			factor = 1
		}
		set_country_flag = songs_of_maxug_haver
		custom_tooltip = songs_of_maxug_tooltip
	}
}

# Songs of Shattering
country_event = {
	id = bulgu_orazan.8
	title = bulgu_orazan.8.t
	desc = bulgu_orazan.8.d
	picture = STREET_SPEECH_eventPicture
	
	mean_time_to_happen = {
		years = 1

		modifier = {
			factor = 0.1
			tag = H72
		}
		
		modifier = {
			factor = 0.1
			any_owned_province = {
				is_core H72
			}
		}
	}
	
	trigger = {
		religion = bulgu_orazan
		NOT = { has_country_flag = songs_of_shattering_haver }
		OR = {
			any_known_country = {
				OR = {
					any_owned_province = {
						is_core = H72
					}
					has_country_flag = songs_of_shattering_haver
				}
			}
			tag = H72
		}
	}
	
	option = {
		name = bulgu_orazan.8.a
		ai_chance = {
			factor = 1
		}
		set_country_flag = songs_of_shattering_haver
		custom_tooltip = songs_of_shattering_tooltip
	}
}

# Songs of Bordu
country_event = {
	id = bulgu_orazan.9
	title = bulgu_orazan.9.t
	desc = bulgu_orazan.9.d
	picture = STREET_SPEECH_eventPicture
	
	mean_time_to_happen = {
		years = 1

		modifier = {
			factor = 0.1
			tag = H72
		}
		
		modifier = {
			factor = 0.1
			any_owned_province = {
				is_core H72
			}
		}
	}
	
	trigger = {
		religion = bulgu_orazan
		NOT = { has_country_flag = songs_of_bordu_haver }
		OR = {
			any_known_country = {
				OR = {
					any_owned_province = {
						is_core = H72
					}
					has_country_flag = songs_of_bordu_haver
				}
			}
			tag = H72
		}
	}
	
	option = {
		name = bulgu_orazan.9.a
		ai_chance = {
			factor = 1
		}
		set_country_flag = songs_of_bordu_haver
		custom_tooltip = songs_of_bordu_tooltip
	}
}

# Female Shamans
country_event = {
	id = bulgu_orazan.10
	title = bulgu_orazan.10.t
	desc = bulgu_orazan.10.d
	picture = STREET_SPEECH_eventPicture
	
	mean_time_to_happen = {
		years = 20
		
		modifier = {
			factor = 0.1
			church_power = 200
		}
	}
	
	trigger = {
		is_year = 1600
		religion = bulgu_orazan
		NOT = {
			has_country_modifier = bulgu_orazan_declined_reform
			OR = {
				has_country_flag = bulgu_female_shamans
				has_country_flag = bulgu_no_female_shamans
			}
		}
		church_power = 125
	}

	#female shamans
	option = {
		name = bulgu_orazan.10.a
		ai_chance = {
			factor = 1
		}
		add_church_power = -100
		set_country_flag = bulgu_female_shamans
		add_country_modifier = {
			name = bulgu_female_shamans_modifier
			duration = -1
		}
		if = {
			limit = {
				has_estate = estate_church
			}
			add_estate_loyalty = {
				estate = estate_church
				loyalty = -10
			}
		}
		if = {
			limit = {
				has_estate = estate_monstrous_tribes
			}
			add_estate_loyalty = {
				estate = estate_monstrous_tribes
				loyalty = -5
			}
		}
		every_country = {
			limit = {
				has_country_flag = bulgu_no_female_shamans
			}
			add_opinion = {
				who = ROOT
				modifier = bulgu_disagree_on_female_shamans
			}
			reverse_add_opinion = {
				who = PREV
				modifier = bulgu_disagree_on_female_shamans
			}
		}
		every_country = {
			limit = {
				has_country_flag = bulgu_female_shamans
			}
			add_opinion = {
				who = ROOT
				modifier = bulgu_agree_on_female_shamans
			}
			reverse_add_opinion = {
				who = ROOT
				modifier = bulgu_agree_on_female_shamans
			}
		}
	}

	#no female shamans
	option = {
		name = bulgu_orazan.10.b
		ai_chance = {
			factor = 1
		}
		add_church_power = -100
		set_country_flag = bulgu_no_female_shamans
		add_country_modifier = {
			name = bulgu_no_female_shamans_modifier
			duration = -1
		}
		if = {
			limit = {
				has_estate = estate_church
			}
			add_estate_loyalty = {
				estate = estate_church
				loyalty = 10
			}
		}
		if = {
			limit = {
				has_estate = estate_monstrous_tribes
			}
			add_estate_loyalty = {
				estate = estate_monstrous_tribes
				loyalty = 5
			}
		}
		every_country = {
			limit = {
				has_country_flag = bulgu_female_shamans
			}
			add_opinion = {
				who = ROOT
				modifier = bulgu_disagree_on_female_shamans
			}
			reverse_add_opinion = {
				who = ROOT
				modifier = bulgu_disagree_on_female_shamans
			}
		}
		every_country = {
			limit = {
				has_country_flag = bulgu_no_female_shamans
			}
			add_opinion = {
				who = ROOT
				modifier = bulgu_agree_on_female_shamans
			}
			reverse_add_opinion = {
				who = ROOT
				modifier = bulgu_agree_on_female_shamans
			}
		}
	}

	#ask again in 20
	option = {
		name = bulgu_orazan.10.c
		ai_chance = {
			factor = 1
		}
		add_country_modifier = {
			name = bulgu_orazan_declined_reform
			duration = 7300
		}
	}
}

# Shamans abstinence
country_event = {
	id = bulgu_orazan.11
	title = bulgu_orazan.11.t
	desc = bulgu_orazan.11.d
	picture = STREET_SPEECH_eventPicture
	
	mean_time_to_happen = {
		years = 20
		
		modifier = {
			factor = 0.1
			church_power = 200
		}
	}
	
	trigger = {
		is_year = 1650
		religion = bulgu_orazan
		NOT = {
			has_country_modifier = bulgu_orazan_declined_reform
			OR = {
				has_country_flag = bulgu_abstinence
				has_country_flag = bulgu_no_abstinence
			}
		}
		church_power = 125
	}

	#Abstinence
	option = {
		name = bulgu_orazan.11.a
		ai_chance = {
			factor = 1
		}
		add_church_power = -100
		set_country_flag = bulgu_abstinence
		add_country_modifier = {
			name = bulgu_abstinence_modifier
			duration = -1
		}
		if = {
			limit = {
				has_estate = estate_church
			}
			add_estate_loyalty = {
				estate = estate_church
				loyalty = -15
			}
		}
		if = {
			limit = {
				has_estate = estate_nobles
			}
			add_estate_loyalty = {
				estate = estate_nobles
				loyalty = 10
			}
		}
		if = {
			limit = {
				has_estate = estate_monstrous_tribes
			}
			add_estate_loyalty = {
				estate = estate_monstrous_tribes
				loyalty = 5
			}
		}
		every_country = {
			limit = {
				has_country_flag = bulgu_no_abstinence
			}
			add_opinion = {
				who = ROOT
				modifier = bulgu_disagree_on_abstinence
			}
			reverse_add_opinion = {
				who = PREV
				modifier = bulgu_disagree_on_abstinence
			}
		}
		every_country = {
			limit = {
				has_country_flag = bulgu_abstinence
			}
			add_opinion = {
				who = ROOT
				modifier = bulgu_agree_on_abstinence
			}
			reverse_add_opinion = {
				who = ROOT
				modifier = bulgu_agree_on_abstinence
			}
		}
	}

	#no Abstinence
	option = {
		name = bulgu_orazan.11.b
		ai_chance = {
			factor = 1
		}
		add_church_power = -100
		set_country_flag = bulgu_no_abstinence
		add_country_modifier = {
			name = bulgu_no_abstinence_modifier
			duration = -1
		}
		if = {
			limit = {
				has_estate = estate_church
			}
			add_estate_loyalty = {
				estate = estate_church
				loyalty = 15
			}
		}
		if = {
			limit = {
				has_estate = estate_nobles
			}
			add_estate_loyalty = {
				estate = estate_nobles
				loyalty = -10
			}
		}
		if = {
			limit = {
				has_estate = estate_monstrous_tribes
			}
			add_estate_loyalty = {
				estate = estate_monstrous_tribes
				loyalty = -5
			}
		}
		every_country = {
			limit = {
				has_country_flag = bulgu_abstinence
			}
			add_opinion = {
				who = ROOT
				modifier = bulgu_disagree_on_abstinence
			}
			reverse_add_opinion = {
				who = ROOT
				modifier = bulgu_disagree_on_abstinence
			}
		}
		every_country = {
			limit = {
				has_country_flag = bulgu_no_abstinence
			}
			add_opinion = {
				who = ROOT
				modifier = bulgu_agree_on_abstinence
			}
			reverse_add_opinion = {
				who = ROOT
				modifier = bulgu_agree_on_abstinence
			}
		}
	}

	#ask again in 20
	option = {
		name = bulgu_orazan.11.c
		ai_chance = {
			factor = 1
		}
		add_country_modifier = {
			name = bulgu_orazan_declined_reform
			duration = 7300
		}
	}
}

# Combat Heresy
country_event = {
	id = bulgu_orazan.12
	title = bulgu_orazan.12.t
	desc = bulgu_orazan.12.d
	picture = STREET_SPEECH_eventPicture
	
	mean_time_to_happen = {
		years = 5
		
		modifier = {
			factor = 0.1
			church_power = 200
		}
	}
	
	trigger = {
		religion = bulgu_orazan
		calc_true_if = {
			amount = 5
			all_owned_province = {
				religion_group = orcish
				NOT = { religion = bulgu_orazan }
			}
		}
		church_power = 150
	}
	
	immediate = {
		hidden_effect = {
			random_owned_province = {
				limit = {
					religion_group = orcish
					NOT = { 
						religion = bulgu_orazan
						has_province_flag = bulgu_heresy_target_flag
					}
					
				}
				save_event_target_as = bulgu_heresy_target_1
				set_province_flag = bulgu_heresy_target_flag
			}
			random_owned_province = {
				limit = {
					religion_group = orcish
					NOT = { 
						religion = bulgu_orazan
						has_province_flag = bulgu_heresy_target_flag
					}
				}
				save_event_target_as = bulgu_heresy_target_2
				set_province_flag = bulgu_heresy_target_flag
			}
			random_owned_province = {
				limit = {
					religion_group = orcish
					NOT = { 
						religion = bulgu_orazan
						has_province_flag = bulgu_heresy_target_flag
					}
				}
				save_event_target_as = bulgu_heresy_target_3
				set_province_flag = bulgu_heresy_target_flag
			}
			random_owned_province = {
				limit = {
					religion_group = orcish
					NOT = { 
						religion = bulgu_orazan
						has_province_flag = bulgu_heresy_target_flag
					}
				}
				save_event_target_as = bulgu_heresy_target_4
				set_province_flag = bulgu_heresy_target_flag
			}
			random_owned_province = {
				limit = {
					religion_group = orcish
					NOT = { 
						religion = bulgu_orazan
						has_province_flag = bulgu_heresy_target_flag
					}
				}
				save_event_target_as = bulgu_heresy_target_5
				set_province_flag = bulgu_heresy_target_flag
			}
		}
	}

	#Integrate
	option = {
		name = bulgu_orazan.12.a
		ai_chance = {
			factor = 1
		}
		add_church_power = -100
		add_country_modifier = {
			name = bulgu_compromise
			duration = 3650
		}
		event_target:bulgu_heresy_target_1 = {
			change_religion = bulgu_orazan
			clr_province_flag = bulgu_heresy_target_flag
		}
		event_target:bulgu_heresy_target_2 = {
			change_religion = bulgu_orazan
			clr_province_flag = bulgu_heresy_target_flag
		}
		event_target:bulgu_heresy_target_3 = {
			change_religion = bulgu_orazan
			clr_province_flag = bulgu_heresy_target_flag
		}
		event_target:bulgu_heresy_target_4 = {
			change_religion = bulgu_orazan
			clr_province_flag = bulgu_heresy_target_flag
		}
		event_target:bulgu_heresy_target_5 = {
			change_religion = bulgu_orazan
			clr_province_flag = bulgu_heresy_target_flag
		}
		if = {
			limit = {
				has_estate = estate_church
			}
			add_estate_loyalty = {
				estate = estate_church
				loyalty = -5
			}
		}
	}

	#Combat
	option = {
		name = bulgu_orazan.12.b
		ai_chance = {
			factor = 1
		}
		add_church_power = -100
		add_country_modifier = {
			name = bulgu_rejected_compromise
			duration = 3650
		}
		if = {
			limit = {
				has_estate = estate_church
			}
			add_estate_loyalty = {
				estate = estate_church
				loyalty = 5
			}
		}
	}
	
	#Apathy
	option = {
		name = bulgu_orazan.12.c
		ai_chance = {
			factor = 1
		}
		add_church_power = -25
		add_country_modifier = {
			name = bulgu_apathy
			duration = 3650
		}
		if = {
			limit = {
				has_estate = estate_church
			}
			add_estate_loyalty = {
				estate = estate_church
				loyalty = -5
			}
		}
	}
}

# Shamans want to build a temple
country_event = {
	id = bulgu_orazan.13
	title = bulgu_orazan.13.t
	desc = bulgu_orazan.13.d
	picture = STREET_SPEECH_eventPicture
	
	mean_time_to_happen = {
		years = 5
		
		modifier = {
			factor = 0.5
			church_power = 200
		}
	}
	
	trigger = {
		religion = bulgu_orazan
		any_owned_province = {
			religion_group = orcish
			NOT = { religion = bulgu_orazan }
			num_free_building_slots = 1
			NOT = { has_building = cathedral }
			NOT = { has_building = temple }
			NOT = { has_construction = missionary }
		}
		church_power = 150
	}
	
	immediate = {
		hidden_effect = {
			random_owned_province = {
				limit = {
					religion_group = orcish
					NOT = { religion = bulgu_orazan }
					num_free_building_slots = 1
					NOT = { has_building = cathedral }
					NOT = { has_building = temple }
					NOT = { has_construction = missionary }
				}
				save_event_target_as = bulgu_church_target
			}
		}
	}

	#Build the church
	option = {
		name = bulgu_orazan.13.a
		ai_chance = {
			factor = 1
		}
		add_church_power = -75
		event_target:bulgu_church_target = {
			add_building_construction = {
				building = temple
				speed = 0.5
				cost = 0.5
			}
			change_religion = bulgu_orazan
		}
		if = {
			limit = {
				has_estate = estate_church
			}
			add_estate_loyalty = {
				estate = estate_church
				loyalty = 5
			}
		}
	}

	#Nah
	option = {
		name = bulgu_orazan.13.b
		ai_chance = {
			factor = 1
		}
		add_church_power = -25
		if = {
			limit = {
				has_estate = estate_church
			}
			add_estate_loyalty = {
				estate = estate_church
				loyalty = -5
			}
		}
	}
}

# Remove modifiers and flags when converting away
country_event = {
	id = bulgu_orazan.14
	title = bulgu_orazan.14.t
	desc = bulgu_orazan.14.d
	picture = STREET_SPEECH_eventPicture
	
	is_triggered_only = yes
	
	hidden = yes
	
	trigger = {
	}
	
	immediate = {
		hidden_effect = {
			remove_country_modifier = bulgu_rejected_compromise
			remove_country_modifier = bulgu_compromise
			remove_country_modifier = bulgu_apathy
			remove_country_modifier = bulgu_abstinence_modifier
			remove_country_modifier = bulgu_no_abstinence_modifier
			remove_country_modifier = bulgu_female_shamans_modifier
			remove_country_modifier = bulgu_no_female_shamans_modifier
			remove_country_modifier = bulgu_orazan_declined_reform
			clr_country_flag = bulgu_orazan_flag
			clr_country_flag = songs_of_bramash_haver
			clr_country_flag = songs_of_korgus_haver
			clr_country_flag = songs_of_brasur_haver
			clr_country_flag = songs_of_ashentree_haver
			clr_country_flag = songs_of_bluetusk_haver
			clr_country_flag = songs_of_brown_struggle_haver
			clr_country_flag = songs_of_maxug_haver
			clr_country_flag = songs_of_shattering_haver
			clr_country_flag = songs_of_bordu_haver
			clr_country_flag = bulgu_female_shamans
			clr_country_flag = bulgu_no_female_shamans
			clr_country_flag = bulgu_abstinence
			clr_country_flag = bulgu_no_abstinence
			every_country = {
				limit = {
					has_opinion_modifier = {
						who = ROOT
						modifier = bulgu_disagree_on_female_shamans
					}
				}
				remove_opinion = {
					who = ROOT
					modifier = bulgu_disagree_on_female_shamans
				}
				reverse_remove_opinion = {
					who = ROOT
					modifier = bulgu_disagree_on_female_shamans
				}
			}
			every_country = {
				limit = {
					has_opinion_modifier = {
						who = ROOT
						modifier = bulgu_agree_on_female_shamans
					}
				}
				remove_opinion = {
					who = ROOT
					modifier = bulgu_agree_on_female_shamans
				}
				reverse_remove_opinion = {
					who = ROOT
					modifier = bulgu_agree_on_female_shamans
				}
			}
			every_country = {
				limit = {
					has_opinion_modifier = {
						who = ROOT
						modifier = bulgu_agree_on_abstinence
					}
				}
				remove_opinion = {
					who = ROOT
					modifier = bulgu_agree_on_abstinence
				}
				reverse_remove_opinion = {
					who = ROOT
					modifier = bulgu_agree_on_abstinence
				}
			}
			every_country = {
				limit = {
					has_opinion_modifier = {
						who = ROOT
						modifier = bulgu_disagree_on_abstinence
					}
				}
				remove_opinion = {
					who = ROOT
					modifier = bulgu_disagree_on_abstinence
				}
				reverse_remove_opinion = {
					who = ROOT
					modifier = bulgu_disagree_on_abstinence
				}
			}
			every_country = {
				limit = {
					reverse_has_opinion_modifier = {
						who = ROOT
						modifier = bulgu_disagree_on_female_shamans
					}
				}
				remove_opinion = {
					who = ROOT
					modifier = bulgu_disagree_on_female_shamans
				}
				reverse_remove_opinion = {
					who = ROOT
					modifier = bulgu_disagree_on_female_shamans
				}
			}
			every_country = {
				limit = {
					reverse_has_opinion_modifier = {
						who = ROOT
						modifier = bulgu_agree_on_female_shamans
					}
				}
				remove_opinion = {
					who = ROOT
					modifier = bulgu_agree_on_female_shamans
				}
				reverse_remove_opinion = {
					who = ROOT
					modifier = bulgu_agree_on_female_shamans
				}
			}
			every_country = {
				limit = {
					reverse_has_opinion_modifier = {
						who = ROOT
						modifier = bulgu_agree_on_abstinence
					}
				}
				remove_opinion = {
					who = ROOT
					modifier = bulgu_agree_on_abstinence
				}
				reverse_remove_opinion = {
					who = ROOT
					modifier = bulgu_agree_on_abstinence
				}
			}
			every_country = {
				limit = {
					reverse_has_opinion_modifier = {
						who = ROOT
						modifier = bulgu_disagree_on_abstinence
					}
				}
				remove_opinion = {
					who = ROOT
					modifier = bulgu_disagree_on_abstinence
				}
				reverse_remove_opinion = {
					who = ROOT
					modifier = bulgu_disagree_on_abstinence
				}
			}
		}
	}

	#rip perf
	option = {
		name = bulgu_orazan.14.a
		ai_chance = {
			factor = 1
		}
	}
}

# Remove modifiers and flags when converting away
country_event = {
	id = bulgu_orazan.15
	title = bulgu_orazan.15.t
	desc = bulgu_orazan.15.d
	picture = STREET_SPEECH_eventPicture
	
	hidden = yes
	
	trigger = {
		religion = bulgu_orazan
		NOT = { has_country_flag = bulgu_orazan_flag }
	}
	
	immediate = {
		set_country_flag = bulgu_orazan_flag
	}

	#rip perf
	option = {
		name = bulgu_orazan.14.a
		ai_chance = {
			factor = 1
		}
	}
}
