namespace = xhazobkult_events



country_event = {
	id = xhazobkult_events.0
	title = xhazobkult_events.1.t
	desc = xhazobkult_events.1.d
	picture = MILITARY_CAMP_eventPicture
	
	is_triggered_only = yes
	hidden = yes
	
	trigger = {
		religion = xhazobkult
		NOT = { is_year = 1445 }
	}
	
	option = {
		every_owned_province = {
			xhazobkult_set_appropriate_modifier = yes
		}
		country_event = {
			id = xhazobkult_events.2000
		}
		set_variable = {
			which = total_gathered_sacrifices
			value = 0
		}
	}
}




###########################
###   Flavour Events    ###
###########################

country_event = { #Local gnolls do their own ritual
	id = xhazobkult_events.10
	title = xhazobkult_events.10.t
	desc = xhazobkult_events.10.d
	picture = MILITARY_CAMP_eventPicture
	
	is_triggered_only = yes
	
	trigger = {
		religion = xhazobkult
		any_owned_province = {
			has_gnollish_minority_trigger = yes
			NOT = { religion = xhazobkult }
		}
	}
	
	immediate = {
		random_owned_province = {
			limit = { has_gnollish_minority_trigger = yes NOT = { religion = xhazobkult } }
			save_event_target_as = xhazobkult_random_sacrifice
		}
	}
	
	option = { #Their sacrifices belong to the state
		name = xhazobkult_events.10.a
		ai_chance = { factor = 1 }
		change_variable = {
			which = total_gathered_sacrifices
			value = 1
		}
		add_estate_loyalty = {
			estate = estate_monstrous_tribes
			loyalty = -5
		}
		event_target:xhazobkult_random_sacrifice = {
			add_devastation = 25
		}
	}
	option = { #Recruit them
		name = xhazobkult_events.10.b
		ai_chance = { factor = 1 }
		add_manpower = 1
		add_patriarch_authority = 0.001
		event_target:xhazobkult_random_sacrifice = {
			add_devastation = 25
		}
	}
	option = { #stop them!
		name = xhazobkult_events.10.c
		ai_chance = { factor = 1 }
		add_estate_loyalty = {
			estate = estate_monstrous_tribes
			loyalty = -10
		}
	}
}

country_event = { #Support of the Initiated
	id = xhazobkult_events.11
	title = xhazobkult_events.11.t
	desc = xhazobkult_events.11.d
	picture = MILITARY_CAMP_eventPicture
	
	is_triggered_only = yes
	
	trigger = {
		religion = xhazobkult
		is_at_war = yes
		any_owned_province = {
			has_state_patriach = yes
		}
	}
	
	option = { #Our Enemies will Bleed!
		name = xhazobkult_events.11.a
		ai_chance = { factor = 1 }
		custom_tooltip = xhazobkult_support_of_the_initiated_tt
		hidden_effect = {
			every_owned_province = {
				limit = { has_state_patriach = yes }
				owner = {
					random_list = {
						1 = { if = { limit = { capital_scope = { controlled_by = ROOT has_siege = no } } capital_scope = { infantry = ROOT infantry = ROOT } } else = { owner = { add_manpower = 1 } } }
						2 = { if = { limit = { capital_scope = { controlled_by = ROOT has_siege = no } } capital_scope = { infantry = ROOT } } else = { add_manpower = 0.5 } }
						1 = { add_manpower = 1.5 }
						1 = { add_manpower = 1 }
						1 = { add_manpower = 0.5 }
						6 = { }
					}
				}
			}
		}
	}
}

country_event = { #Gnolls being lazy
	id = xhazobkult_events.12
	title = xhazobkult_events.12.t
	desc = xhazobkult_events.12.d
	picture = MILITARY_CAMP_eventPicture
	
	is_triggered_only = yes
	
	trigger = {
		religion = xhazobkult
		is_at_war = no
		any_owned_province = {
			has_state_patriach = yes
		}
	}
	
	option = { #It is their right
		name = xhazobkult_events.12.a
		ai_chance = { factor = 1 }
		custom_tooltip = xhazobkult_decadence_of_the_kult_tt
		hidden_effect = {
			every_owned_province = {
				limit = { has_state_patriach = yes }
				add_province_modifier = {
					name = xhazobkult_decadence_of_the_kult
					duration = 3650
				}
			}
		}
	}
}

country_event = { #The Voice from Beyond
	id = xhazobkult_events.13
	title = xhazobkult_events.13.t #All initiated hear a voice whispering to them
	desc = xhazobkult_events.13.d
	picture = MILITARY_CAMP_eventPicture
	
	is_triggered_only = yes
	
	trigger = {
		religion = xhazobkult
		any_owned_province = {
			has_state_patriach = yes
		}
	}
	
	option = { #We will listen
		name = xhazobkult_events.13.a
		ai_chance = { factor = 1 }
		random_list = {
			1 = {
				custom_tooltip = xhazobkult_gain_cult_prov_adm_tt
				hidden_effect = {
					if = {
						limit = { num_of_owned_provinces_with = { value = 30 has_state_patriach = yes } }
						add_adm_power = 300
					}
					else = {
						every_owned_province = {
							limit = { has_state_patriach = yes }
							owner = { add_adm_power = 10 }
						}
					}
				}
			}
			1 = {
				custom_tooltip = xhazobkult_gain_cult_prov_mil_tt
				hidden_effect = {
					if = {
						limit = { num_of_owned_provinces_with = { value = 30 has_state_patriach = yes } }
						add_mil_power = 300
					}
					else = {
						every_owned_province = {
							limit = { has_state_patriach = yes }
							owner = { add_mil_power = 10 }
						}
					}
				}
			}
			1 = {
				custom_tooltip = xhazobkult_gain_cult_prov_dip_tt
				hidden_effect = {
					if = {
						limit = { num_of_owned_provinces_with = { value = 30 has_state_patriach = yes } }
						add_dip_power = 300
					}
					else = {
						every_owned_province = {
							limit = { has_state_patriach = yes }
							owner = { add_dip_power = 10 }
						}
					}
				}
			}
		}
	}
}

country_event = { #The Slacking at the Slave Estates
	id = xhazobkult_events.14
	title = xhazobkult_events.14.t
	desc = xhazobkult_events.14.d
	picture = MILITARY_CAMP_eventPicture
	
	is_triggered_only = yes
	
	trigger = {
		religion = xhazobkult
		any_owned_province = {
			has_province_modifier = xhazobkult_slave_estate
		}
	}
	
	option = { #The Brand of the Xhaz will set them to work
		name = xhazobkult_events.14.a
		ai_chance = { factor = 1 }
		add_patriarch_authority = -0.1
		custom_tooltip = xhazobkult_brand_of_the_xhaz_tt
		tooltip = {
			random_owned_province = {
				limit = { has_province_modifier = xhazobkult_slave_estate }
				add_province_modifier = {
					name = xhazobkult_slave_estate_brand_of_the_xhaz
					duration = 3650
				}
			}
		}
		hidden_effect = {
			every_owned_province = {
				limit = { has_province_modifier = xhazobkult_slave_estate }
				add_province_modifier = {
					name = xhazobkult_slave_estate_brand_of_the_xhaz
					duration = 3650
				}
			}
		}
	}
	option = { #Let them, maybe they'll calm down
		name = xhazobkult_events.14.b
		ai_chance = { factor = 1 }
		custom_tooltip = xhazobkult_brand_of_the_xhaz_tt
		tooltip = {
			random_owned_province = {
				limit = { has_province_modifier = xhazobkult_slave_estate }
				add_province_modifier = {
					name = xhazobkult_slave_estate_slacking_off
					duration = 3650
				}
			}
		}
		hidden_effect = {
			every_owned_province = {
				limit = { has_province_modifier = xhazobkult_slave_estate }
				add_province_modifier = {
					name = xhazobkult_slave_estate_slacking_off
					duration = 3650
				}
			}
		}
	}
}

country_event = { #sacrifices for the ai
	id = xhazobkult_events.15
	title = xhazobkult_events.14.t
	desc = xhazobkult_events.14.d
	picture = MILITARY_CAMP_eventPicture
	
	is_triggered_only = yes
	
	trigger = {
		religion = xhazobkult
		ai = yes
	}
	
	option = {
		name = xhazobkult_events.14.a
		ai_chance = { factor = 1 }
		
		random_owned_province = {
			limit = { NOT = { religion = xhazobkult } }
			add_devastation = 20
		}
		random_owned_province = {
			limit = { NOT = { religion = xhazobkult } }
			add_devastation = 20
		}
		change_variable = {
			which = total_gathered_sacrifices
			value = 20
		}
	}
}

country_event = { #Sacrifices Escaped!
	id = xhazobkult_events.16
	title = xhazobkult_events.16.t
	desc = xhazobkult_events.16.d
	picture = MILITARY_CAMP_eventPicture
	
	is_triggered_only = yes
	
	trigger = {
		religion = xhazobkult
		any_owned_province = { NOT = { culture_group = gnollish } }
		check_variable = {
			which = total_gathered_sacrifices
			value = 1
		}
	}
	
	option = { #Let them go
		name = xhazobkult_events.16.a
		ai_chance = { factor = 1 }
		
		random_owned_province = {
			limit = { NOT = { culture_group = gnollish } }
			random_list = {
				1 = { add_adm_power = 1 }
				1 = { add_base_production = 1 }
				1 = { add_base_manpower = 1 }
			}
		}
		change_variable = {
			which = total_gathered_sacrifices
			value = -1
		}
	}
	option = { #Hunt them down!
		name = xhazobkult_events.16.b
		ai_chance = { factor = 1 }
		
		random_owned_province = {
			limit = { NOT = { culture_group = gnollish } }
			anti_tax_rebels = 1
		}
	}
}

province_event = { #Gnolls flock to $PROVINCENAME$
	id = xhazobkult_events.17
	title = xhazobkult_events.17.t
	desc = xhazobkult_events.17.d
	picture = MILITARY_CAMP_eventPicture
	
	trigger = {
		has_building = xhazobkult_pyre
		has_state_edict = gather_sacrifices_edict
	}
	
	mean_time_to_happen = {
		days = 1825
	}
	is_mtth_scaled_to_size = 1
	
	option = {
		name = xhazobkult_events.17.a
		ai_chance = { factor = 1 }
		
		add_gnollish_minority_size_effect = yes
		if = {
			limit = { OR = { has_gnollish_majority_trigger = yes has_large_gnollish_minority_trigger = yes } }
			random = {
				chance = 50
				random_list = {
					1 = { add_adm_power = 1 }
					1 = { add_base_production = 1 }
					1 = { add_base_manpower = 1 }
				}
			}
		}
	}
}

province_event = { #Pyre sabotaged in $PROVINCENAME$
	id = xhazobkult_events.18
	title = xhazobkult_events.18.t
	desc = xhazobkult_events.18.d
	picture = MILITARY_CAMP_eventPicture
	
	trigger = {
		has_building = xhazobkult_pyre
		owner = { religion = xhazobkult }
	}
	
	mean_time_to_happen = {
		days = 1825
	}
	is_mtth_scaled_to_size = 1
	
	option = {
		name = xhazobkult_events.18.a
		ai_chance = { factor = 1 }
		
		remove_building = xhazobkult_pyre
	}
}

province_event = { #Demonic horde in $PROVINCENAME$
	id = xhazobkult_events.19
	title = xhazobkult_events.19.t
	desc = xhazobkult_events.19.d
	picture = MILITARY_CAMP_eventPicture
	
	is_triggered_only = yes
	
	trigger = {
		owner = { religion = xhazobkult }
	}
	
	immediate = {
		demonic_horde_rebels = 1
	}
	
	option = {
		name = xhazobkult_events.19.a
		ai_chance = { factor = 1 }
		tooltip = {
			demonic_horde_rebels = 1
		}
	}
}


#Demonic Pact
country_event = {
	id = xhazobkult_events.1000
	title = xhazobkult_events.1000.t
	desc = xhazobkult_events.1000.d
	picture = MILITARY_CAMP_eventPicture
	
	is_triggered_only = yes
	
	option = { #Offer a sacrifice of your own blood
		name = xhazobkult_events.1000.a
		trigger = { NOT = { has_ruler_flag = xhazobkult_sacrifice_of_own_blood } has_heir = yes }
		ai_chance = { factor = 1 }
		kill_heir = { allow_new_heir = no }
		set_ruler_flag = xhazobkult_sacrifice_of_own_blood
		
		hidden_effect = {
			country_event = {
				id = xhazobkult_events.1001
			}
		}
	}
	option = { #Offer a sacrifice of the masses
		name = xhazobkult_events.1000.b
		trigger = { NOT = { has_ruler_flag = xhazobkult_sacrifice_of_the_masses } capital_scope = { development = 6 } }
		ai_chance = { factor = 1 }
		capital_scope = {
			add_base_tax = -1
			add_base_production = -1
			add_base_manpower = -1
			add_devastation = 30
		}
		set_ruler_flag = xhazobkult_sacrifice_of_the_masses
		
		hidden_effect = {
			country_event = {
				id = xhazobkult_events.1001
			}
		}
	}
	option = { #Offer a sacrifice of might
		name = xhazobkult_events.1000.c
		trigger = { NOT = { has_ruler_flag = xhazobkult_sacrifice_of_might } mil = 1 }
		ai_chance = { factor = 1 }
		change_mil = -1
		set_ruler_flag = xhazobkult_sacrifice_of_might
		
		hidden_effect = {
			country_event = {
				id = xhazobkult_events.1001
			}
		}
	}
	option = { #Offer a sacrifice of mind
		name = xhazobkult_events.1000.dd
		trigger = { NOT = { has_ruler_flag = xhazobkult_sacrifice_of_mind } adm = 1 }
		ai_chance = { factor = 1 }
		change_adm = -1
		set_ruler_flag = xhazobkult_sacrifice_of_mind
		
		hidden_effect = {
			country_event = {
				id = xhazobkult_events.1001
			}
		}
	}
	option = { #Offer a sacrifice of speech
		name = xhazobkult_events.1000.e
		trigger = { NOT = { has_ruler_flag = xhazobkult_sacrifice_of_speech } dip = 1 }
		ai_chance = { factor = 1 }
		change_dip = -1
		set_ruler_flag = xhazobkult_sacrifice_of_speech
		
		hidden_effect = {
			country_event = {
				id = xhazobkult_events.1001
			}
		}
	}
	option = { #Offer a sacrifice of gold
		name = xhazobkult_events.1000.f
		trigger = { NOT = { has_ruler_flag = xhazobkult_sacrifice_of_gold } years_of_income = 0.5 }
		ai_chance = { factor = 1 }
		add_years_of_income = -0.5
		set_ruler_flag = xhazobkult_sacrifice_of_gold
		
		hidden_effect = {
			country_event = {
				id = xhazobkult_events.1001
			}
		}
	}
	option = { #Offer a sacrifice of chaos
		name = xhazobkult_events.1000.g
		trigger = { NOT = { has_ruler_flag = xhazobkult_sacrifice_of_chaos } stability = -2 }
		ai_chance = { factor = 1 }
		add_stability = -1
		set_ruler_flag = xhazobkult_sacrifice_of_chaos
		
		hidden_effect = {
			country_event = {
				id = xhazobkult_events.1001
			}
		}
	}
	option = { #Offer a sacrifice of service
		name = xhazobkult_events.1000.h
		trigger = { NOT = { has_ruler_flag = xhazobkult_sacrifice_of_servitude } }
		ai_chance = { factor = 1 }
		custom_tooltip = xhazobkult_sacrifice_of_servitude_tt
		set_ruler_flag = xhazobkult_sacrifice_of_servitude
		
		hidden_effect = {
			country_event = {
				id = xhazobkult_events.1001
			}
		}
	}
	
	option = { #Wait for the demon's reply
		name = xhazobkult_events.1000.i
		ai_chance = { factor = 1 }
		trigger = {
			OR = {
				has_ruler_flag = xhazobkult_sacrifice_of_own_blood
				has_ruler_flag = xhazobkult_sacrifice_of_the_masses
				has_ruler_flag = xhazobkult_sacrifice_of_might
				has_ruler_flag = xhazobkult_sacrifice_of_mind
				has_ruler_flag = xhazobkult_sacrifice_of_speech
				has_ruler_flag = xhazobkult_sacrifice_of_gold
				has_ruler_flag = xhazobkult_sacrifice_of_chaos
				has_ruler_flag = xhazobkult_sacrifice_of_servitude
			}
		}
		highlight = yes
		
		custom_tooltip = xhazobkult_wait_for_the_demons_response_tt
		hidden_effect = {
			country_event = {
				id = xhazobkult_events.1002
				days = 1
			}
		}
	}
}
country_event = {
	id = xhazobkult_events.1001
	title = xhazobkult_events.1001.t
	desc = xhazobkult_events.1001.d
	picture = MILITARY_CAMP_eventPicture
	
	is_triggered_only = yes
	hidden = yes
	
	option = {
		name = xhazobkult_events.1001.a
		ai_chance = { factor = 1 }
		
		country_event = {
			id = xhazobkult_events.1000
		}
	}
}
country_event = { #The demon
	id = xhazobkult_events.1002
	title = xhazobkult_events.1002.t
	desc = xhazobkult_events.1002.d
	picture = MILITARY_CAMP_eventPicture
	
	is_triggered_only = yes
	hidden = yes
	
	option = { #Demon agrees
		name = xhazobkult_events.1001.a
		ai_chance = {
			factor = 5
		}
		
		country_event = {
			id = xhazobkult_events.1003
		}
	}
	option = { #Demon refuses
		name = xhazobkult_events.1001.a
		ai_chance = {
			factor = 10
			modifier = {
				factor = 0.95
				ruler_has_personality = zealot_personality
			}
			modifier = {
				factor = 0.95
				ruler_has_personality = conqueror_personality
			}
			modifier = {
				factor = 0.95
				ruler_has_personality = bold_fighter_personality
			}
			modifier = {
				factor = 0.95
				ruler_has_personality = charismatic_negotiator_personality
			}
			modifier = {
				factor = 0.95
				ruler_has_personality = silver_tongue_personality
			}
			modifier = {
				factor = 0.95
				ruler_has_personality = fierce_negotiator_personality
			}
			modifier = {
				factor = 0.95
				ruler_has_personality = embezzler_personality
			}
			modifier = {
				factor = 0.95
				ruler_has_personality = drunkard_personality
			}
			modifier = {
				factor = 0.95
				ruler_has_personality = sinner_personality
			}
			modifier = {
				factor = 0.95
				ruler_has_personality = greedy_personality
			}
			modifier = {
				factor = 0.90
				ruler_has_personality = cruel_personality
			}
			modifier = {
				factor = 0.90
				ruler_has_personality = malevolent_personality
			}
			modifier = {
				factor = 0.95
				mil = 4
			}
			modifier = {
				factor = 0.95
				mil = 5
			}
			modifier = {
				factor = 0.95
				mil = 6
			}
			modifier = {
				factor = 0.95
				dip = 4
			}
			modifier = {
				factor = 0.95
				dip = 5
			}
			modifier = {
				factor = 0.95
				dip = 6
			}
			modifier = {
				factor = 0.95
				adm = 4
			}
			modifier = {
				factor = 0.95
				adm = 5
			}
			modifier = {
				factor = 0.95
				adm = 6
			}
			modifier = {
				factor = 0.85
				has_ruler_flag = xhazobkult_sacrifice_of_own_blood
			}
			modifier = {
				factor = 0.7
				has_ruler_flag = xhazobkult_sacrifice_of_the_masses
			}
			modifier = {
				factor = 0.8
				has_ruler_flag = xhazobkult_sacrifice_of_might
			}
			modifier = {
				factor = 0.8
				has_ruler_flag = xhazobkult_sacrifice_of_mind
			}
			modifier = {
				factor = 0.8
				has_ruler_flag = xhazobkult_sacrifice_of_speech
			}
			modifier = {
				factor = 0.85
				has_ruler_flag = xhazobkult_sacrifice_of_gold
			}
			modifier = {
				factor = 0.8
				has_ruler_flag = xhazobkult_sacrifice_of_chaos
			}
			modifier = {
				factor = 0.7
				has_ruler_flag = xhazobkult_sacrifice_of_servitude
			}
		}
		random_list = {
			1 = {
				country_event = {
					id = xhazobkult_events.1004
				}
			}
			1 = {
				country_event = {
					id = xhazobkult_events.1005
				}
			}
		}
	}
}
country_event = { #The demon agrees
	id = xhazobkult_events.1003
	title = xhazobkult_events.1003.t
	desc = xhazobkult_events.1003.d
	picture = MILITARY_CAMP_eventPicture
	
	is_triggered_only = yes
	
	option = {
		name = xhazobkult_events.1003.a
		ai_chance = { factor = 1 }
		
		add_ruler_personality = mage_personality
		hidden_effect = {
			country_event = {
				id = magic_ruler.1
			}
			magic_study_level_up_evocation = yes
		}
	}
}
country_event = { #The demon refuses: kill ruler
	id = xhazobkult_events.1004
	title = xhazobkult_events.1004.t
	desc = xhazobkult_events.1004.d
	picture = MILITARY_CAMP_eventPicture
	
	is_triggered_only = yes
	
	option = {
		name = xhazobkult_events.1004.a
		ai_chance = { factor = 1 }
		
		kill_ruler = yes
	}
}
country_event = { #The demon refuses: ruler lives (go mad?)
	id = xhazobkult_events.1005
	title = xhazobkult_events.1005.t
	desc = xhazobkult_events.1005.d
	picture = MILITARY_CAMP_eventPicture
	
	is_triggered_only = yes
	
	option = {
		name = xhazobkult_events.1005.a
		ai_chance = { factor = 1 }
		
	}
}

#Sacrifices
province_event = { #Build Pyre
	id = xhazobkult_events.1100
	title = xhazobkult_events.1100.t
	desc = xhazobkult_events.1100.d
	picture = MILITARY_CAMP_eventPicture
	
	trigger = {
		has_state_edict = gather_sacrifices_edict
		NOT = {
			any_province_in_state = {
				OR = {
					has_building = xhazobkult_pyre
					has_construction = xhazobkult_pyre
				}
			}
		}
		NOT = { has_construction = building has_construction = core has_construction = culture has_construction = missionary }
		NOT = { owner = { has_country_modifier = xhazobkult_recent_sacrifice } }
	}
	
	mean_time_to_happen = {
		days = 5
	}
	
	option = { #Build Pyre
		name = xhazobkult_events.1100.a
		ai_chance = { factor = 1 }
		add_building_construction = {
			building = xhazobkult_pyre
			speed = 1
			cost = 1
		}
	}
	
	# option = { #Hold off for now
		# name = xhazobkult_events.1100.b
		# ai_chance = { factor = 1 }
		# #Modifier or something?
	# }
}
province_event = { #Gather Sacrifices
	id = xhazobkult_events.1101
	title = xhazobkult_events.1101.t
	desc = xhazobkult_events.1101.d
	picture = MILITARY_CAMP_eventPicture
	
	trigger = {
		has_state_edict = gather_sacrifices_edict
		NOT = { culture_group = gnollish }
		NOT = { has_province_modifier = xhazobkult_exhausted_local_sacrifice_pool }
		NOT = { owner = { has_country_flag = xhazobkult_hide_sacrifice_gathering_events_flag } }
	}
	
	mean_time_to_happen = {
		days = 365
		modifier = {
			factor = 0.6
			development = 4
		}
		modifier = {
			factor = 0.8
			development = 10
		}
		modifier = {
			factor = 0.9
			development = 20
		}
		modifier = {
			factor = 1.2
			devastation = 20
		}
		modifier = {
			factor = 1.2
			devastation = 40
		}
		modifier = {
			factor = 1.2
			devastation = 60
		}
		modifier = {
			factor = 1.2
			devastation = 80
		}
	}
	
	option = { 
		name = xhazobkult_events.1101.a
		ai_chance = { factor = 1 }
		
		owner = {
			change_variable = {
				which = total_gathered_sacrifices
				value = 1
			}
		}
		
		random_list = {
			1 = {
				trigger = { base_tax = 2 }
				add_base_tax = -1
				add_devastation = 25
			}
			1 = {
				trigger = { base_production = 2 }
				add_base_production = -1
				add_devastation = 25
			}
			1 = {
				trigger = { base_manpower = 2 }
				add_base_manpower = -1
				add_devastation = 25
			}
			1 = {
				trigger = { NOT = { development = 4 } }
				add_devastation = 60
			}
		}
	}
	option = { #Hide these events until next click
		name = xhazobkult_events.1101.b
		ai_chance = { factor = 0 }
		
		custom_tooltip = xhazobkult_gather_sacrifices_disable_events_tt
		
		owner = {
			change_variable = {
				which = total_gathered_sacrifices
				value = 1
			}
		}
		
		random_list = {
			1 = {
				trigger = { base_tax = 2 }
				add_base_tax = -1
				add_devastation = 25
			}
			1 = {
				trigger = { base_production = 2 }
				add_base_production = -1
				add_devastation = 25
			}
			1 = {
				trigger = { base_manpower = 2 }
				add_base_manpower = -1
				add_devastation = 25
			}
			1 = {
				trigger = { NOT = { development = 4 } }
				add_devastation = 60
			}
		}
		
		hidden_effect = { owner = { set_country_flag = xhazobkult_hide_sacrifice_gathering_events_flag } }
	}
	
	after = {
		if = {
			limit = { devastation = 100 }
			add_province_modifier = {
				name = xhazobkult_exhausted_local_sacrifice_pool
				duration = 3650
			}
		}
	}
}
country_event = { #Execute
	id = xhazobkult_events.1102
	title = xhazobkult_events.1102.t
	desc = xhazobkult_events.1102.d
	picture = MILITARY_CAMP_eventPicture
	
	is_triggered_only = yes
	
	option = { 
		name = xhazobkult_events.1102.a
		ai_chance = { factor = 1 }
		
		custom_tooltip = xhazobkult_execute_sacrifice_effect_tt
		every_owned_province = {
			limit = { has_building = xhazobkult_pyre }
			remove_building = xhazobkult_pyre
			hidden_effect = {
				random = {
					chance = 20
					province_event = { id = xhazobkult_events.19 }
				}
			}
		}
		hidden_effect = {
			while = {
				limit = { check_variable = { which = total_gathered_sacrifices value = 1 } }
				add_patriarch_authority = 0.01
				change_variable = { which = total_gathered_sacrifices value = -1 }
			}
			set_variable = {
				which = total_gathered_sacrifices
				value = 0
			}
			clr_country_flag = xhazobkult_hide_sacrifice_gathering_events_flag
		}
	}
}
province_event = { #Gather Sacrifices
	id = xhazobkult_events.1103
	title = xhazobkult_events.1101.t
	desc = xhazobkult_events.1101.d
	picture = MILITARY_CAMP_eventPicture
	
	hidden = yes
	
	trigger = {
		has_state_edict = gather_sacrifices_edict
		NOT = { culture_group = gnollish }
		NOT = { has_province_modifier = xhazobkult_exhausted_local_sacrifice_pool }
		owner = { has_country_flag = xhazobkult_hide_sacrifice_gathering_events_flag }
	}
	
	mean_time_to_happen = {
		days = 365
		modifier = {
			factor = 0.6
			development = 4
		}
		modifier = {
			factor = 0.8
			development = 10
		}
		modifier = {
			factor = 0.9
			factor = 0.9
			development = 20
		}
		modifier = {
			factor = 1.2
			devastation = 20
		}
		modifier = {
			factor = 1.2
			devastation = 40
		}
		modifier = {
			factor = 1.2
			devastation = 60
		}
		modifier = {
			factor = 1.2
			devastation = 80
		}
	}
	
	option = { 
		name = xhazobkult_events.1101.a
		ai_chance = { factor = 1 }
		
		owner = {
			change_variable = {
				which = total_gathered_sacrifices
				value = 1
			}
		}
		
		random_list = {
			1 = {
				trigger = { base_tax = 2 }
				add_base_tax = -1
				add_devastation = 25
			}
			1 = {
				trigger = { base_production = 2 }
				add_base_production = -1
				add_devastation = 25
			}
			1 = {
				trigger = { base_manpower = 2 }
				add_base_manpower = -1
				add_devastation = 25
			}
			1 = {
				trigger = { NOT = { development = 4 } }
				add_devastation = 60
			}
		}
	}
	
	after = {
		if = {
			limit = { devastation = 100 }
			add_province_modifier = {
				name = xhazobkult_exhausted_local_sacrifice_pool
				duration = 3650
			}
		}
	}
}

country_event = {
	id = xhazobkult_events.2000
	title = xhazobkult_events.2000.t
	desc = xhazobkult_events.2000.d
	picture = MILITARY_CAMP_eventPicture
	
	is_triggered_only = yes
	hidden = yes
	
	trigger = {
		religion = xhazobkult
	}
	
	immediate = {
		remove_country_modifier = xhazobkult_tributaries_1
		remove_country_modifier = xhazobkult_tributaries_2
		remove_country_modifier = xhazobkult_tributaries_3
		remove_country_modifier = xhazobkult_tributaries_4
		remove_country_modifier = xhazobkult_tributaries_5
		remove_country_modifier = xhazobkult_tributaries_6
		remove_country_modifier = xhazobkult_tributaries_7
		remove_country_modifier = xhazobkult_tributaries_8
		remove_country_modifier = xhazobkult_tributaries_9
		remove_country_modifier = xhazobkult_tributaries_10
		
		calc_tributary_dev_proportion = yes
	}
	
	option = {
		name = xhazobkult_events.2000.a
		ai_chance = { factor = 1 }
		
		xhazobkult_calc_tributary_proportion = yes
		xhazobkult_privilege_the_weak_serve_the_strong_effect = yes
	}
}
